<?xml version="1.0" encoding="UTF-8" ?>
<testsuite failures="2" time="0.416" errors="0" skipped="0" tests="10" name="org.dppware.cucumber.CucumberTest">
  <properties>
    <property name="java.runtime.name" value="Java(TM) SE Runtime Environment"/>
    <property name="sun.boot.library.path" value="C:\Program Files (x86)\Java\jdk1.6.0_34\jre\bin"/>
    <property name="java.vm.version" value="20.9-b04"/>
    <property name="java.vm.vendor" value="Sun Microsystems Inc."/>
    <property name="java.vendor.url" value="http://java.sun.com/"/>
    <property name="path.separator" value=";"/>
    <property name="guice.disable.misplaced.annotation.check" value="true"/>
    <property name="java.vm.name" value="Java HotSpot(TM) 64-Bit Server VM"/>
    <property name="file.encoding.pkg" value="sun.io"/>
    <property name="user.country" value="ES"/>
    <property name="sun.java.launcher" value="SUN_STANDARD"/>
    <property name="sun.os.patch.level" value=""/>
    <property name="java.vm.specification.name" value="Java Virtual Machine Specification"/>
    <property name="user.dir" value="C:\Users\Daniel\workspace\CucumberTest"/>
    <property name="java.runtime.version" value="1.6.0_34-b04"/>
    <property name="java.awt.graphicsenv" value="sun.awt.Win32GraphicsEnvironment"/>
    <property name="java.endorsed.dirs" value="C:\Program Files (x86)\Java\jdk1.6.0_34\jre\lib\endorsed"/>
    <property name="os.arch" value="amd64"/>
    <property name="java.io.tmpdir" value="C:\Users\Daniel\AppData\Local\Temp\"/>
    <property name="line.separator" value="
"/>
    <property name="java.vm.specification.vendor" value="Sun Microsystems Inc."/>
    <property name="user.variant" value=""/>
    <property name="os.name" value="Windows 7"/>
    <property name="classworlds.conf" value="C:\Users\Daniel\workspace\.metadata\.plugins\org.eclipse.m2e.core\launches\m2conf3246596952200095324.tmp"/>
    <property name="sun.jnu.encoding" value="Cp1252"/>
    <property name="java.library.path" value="C:\Program Files (x86)\Java\jdk1.6.0_34\bin;C:\Windows\Sun\Java\bin;C:\Windows\system32;C:\Windows;C:/Program Files (x86)/Java/jre7/bin/client;C:/Program Files (x86)/Java/jre7/bin;C:/Program Files (x86)/Java/jre7/lib/i386;C:\Windows\system32;C:\Windows;C:\Windows\System32\Wbem;C:\Windows\System32\WindowsPowerShell\v1.0\;C:\Program Files\apache-maven-3.0.4\bin;C:\Program Files (x86)\Java\jdk1.6.0_34\jre\bin;C:\Program Files (x86)\apache-ant-1.8.4\bin;C:\Program Files (x86)\Groovy\Groovy-2.0.5\bin;C:\Program Files (x86)\gradle-1.2\bin;C:\Program Files (x86)\OpenVPN\bin;C:\Program Files (x86)\eclipse 32 bits\eclipse;;."/>
    <property name="java.specification.name" value="Java Platform API Specification"/>
    <property name="java.class.version" value="50.0"/>
    <property name="sun.management.compiler" value="HotSpot 64-Bit Tiered Compilers"/>
    <property name="os.version" value="6.1"/>
    <property name="user.home" value="C:\Users\Daniel"/>
    <property name="user.timezone" value="Europe/Paris"/>
    <property name="java.awt.printerjob" value="sun.awt.windows.WPrinterJob"/>
    <property name="file.encoding" value="UTF-8"/>
    <property name="java.specification.version" value="1.6"/>
    <property name="user.name" value="Daniel"/>
    <property name="java.class.path" value="C:\Program Files\apache-maven-3.0.4\boot\plexus-classworlds-2.4.jar"/>
    <property name="java.vm.specification.version" value="1.0"/>
    <property name="sun.arch.data.model" value="64"/>
    <property name="java.home" value="C:\Program Files (x86)\Java\jdk1.6.0_34\jre"/>
    <property name="sun.java.command" value="org.codehaus.plexus.classworlds.launcher.Launcher -B -s C:\Program Files\apache-maven-3.0.4\conf\settings.xml clean install"/>
    <property name="java.specification.vendor" value="Sun Microsystems Inc."/>
    <property name="user.language" value="es"/>
    <property name="awt.toolkit" value="sun.awt.windows.WToolkit"/>
    <property name="java.vm.info" value="mixed mode"/>
    <property name="java.version" value="1.6.0_34"/>
    <property name="java.ext.dirs" value="C:\Program Files (x86)\Java\jdk1.6.0_34\jre\lib\ext;C:\Windows\Sun\Java\lib\ext"/>
    <property name="sun.boot.class.path" value="C:\Program Files (x86)\Java\jdk1.6.0_34\jre\lib\resources.jar;C:\Program Files (x86)\Java\jdk1.6.0_34\jre\lib\rt.jar;C:\Program Files (x86)\Java\jdk1.6.0_34\jre\lib\sunrsasign.jar;C:\Program Files (x86)\Java\jdk1.6.0_34\jre\lib\jsse.jar;C:\Program Files (x86)\Java\jdk1.6.0_34\jre\lib\jce.jar;C:\Program Files (x86)\Java\jdk1.6.0_34\jre\lib\charsets.jar;C:\Program Files (x86)\Java\jdk1.6.0_34\jre\lib\modules\jdk.boot.jar;C:\Program Files (x86)\Java\jdk1.6.0_34\jre\classes"/>
    <property name="java.vendor" value="Sun Microsystems Inc."/>
    <property name="maven.home" value="C:\Program Files\apache-maven-3.0.4"/>
    <property name="file.separator" value="\"/>
    <property name="java.vendor.url.bug" value="http://java.sun.com/cgi-bin/bugreport.cgi"/>
    <property name="sun.cpu.endian" value="little"/>
    <property name="sun.io.unicode.encoding" value="UnicodeLittle"/>
    <property name="sun.desktop" value="windows"/>
    <property name="sun.cpu.isalist" value="amd64"/>
  </properties>
  <testcase time="0" classname="Given dos numeros 2\u002C3   " name="Given dos numeros 2\u002C3   "/>
  <testcase time="0" classname="When sumo los dos numeros    " name="When sumo los dos numeros    "/>
  <testcase time="0" classname="And multiplico el resultado por 3     " name="And multiplico el resultado por 3     "/>
  <testcase time="0" classname="Then resultado debe ser 15      " name="Then resultado debe ser 15      "/>
  <testcase time="0.001" classname="Scenario: Sumatorio de dos numeros  " name="Scenario: Sumatorio de dos numeros  "/>
  <testcase time="0" classname="Given dos numeros 2\u002C3        " name="Given dos numeros 2\u002C3        "/>
  <testcase time="0" classname="When sumo los dos numeros         " name="When sumo los dos numeros         "/>
  <testcase time="0" classname="And multiplico el resultado por 3          " name="And multiplico el resultado por 3          "/>
  <testcase time="0.002" classname="Then resultado debe ser 16           " name="Then resultado debe ser 16           ">
    <failure message="expected:&lt;16&gt; but was:&lt;15&gt;" type="java.lang.AssertionError">java.lang.AssertionError: expected:&lt;16&gt; but was:&lt;15&gt;
	at org.junit.Assert.fail(Assert.java:93)
	at org.junit.Assert.failNotEquals(Assert.java:647)
	at org.junit.Assert.assertEquals(Assert.java:128)
	at org.junit.Assert.assertEquals(Assert.java:472)
	at org.junit.Assert.assertEquals(Assert.java:456)
	at org.dppware.cucumber.CalculosTest.resultado_debe_ser(CalculosTest.java:34)
	at ✽.Then resultado debe ser 16(org\dppware\cucumber\miPrimerTest.feature:16)
</failure>
    <system-out>&amp;#27;[1A    &amp;#27;[32mAnd &amp;#27;[0m&amp;#27;[32mmultiplico el resultado por &amp;#27;[0m&amp;#27;[32m&amp;#27;[1m3&amp;#27;[0m &amp;#27;[90m# CalculosTest.multiplico_el_resultado_por(int)&amp;#27;[0m
    &amp;#27;[90mThen &amp;#27;[0m&amp;#27;[90mresultado debe ser &amp;#27;[0m&amp;#27;[90m&amp;#27;[1m16&amp;#27;[0m        &amp;#27;[90m# CalculosTest.resultado_debe_ser(int)&amp;#27;[0m
</system-out>
  </testcase>
  <testcase time="0.003" classname="Scenario: Sumatorio de dos numeros       " name="Scenario: Sumatorio de dos numeros       ">
    <failure message="expected:&lt;16&gt; but was:&lt;15&gt;" type="java.lang.AssertionError">java.lang.AssertionError: expected:&lt;16&gt; but was:&lt;15&gt;
	at org.junit.Assert.fail(Assert.java:93)
	at org.junit.Assert.failNotEquals(Assert.java:647)
	at org.junit.Assert.assertEquals(Assert.java:128)
	at org.junit.Assert.assertEquals(Assert.java:472)
	at org.junit.Assert.assertEquals(Assert.java:456)
	at org.dppware.cucumber.CalculosTest.resultado_debe_ser(CalculosTest.java:34)
	at ✽.Then resultado debe ser 16(org\dppware\cucumber\miPrimerTest.feature:16)
</failure>
  </testcase>
</testsuite>